<?xml version="1.0" encoding="UTF-8"?>
<testng-results skipped="0" failed="0" ignored="0" total="1" passed="1">
  <reporter-output>
  </reporter-output>
  <suite name="Surefire suite" duration-ms="18095" started-at="2020-11-24T18:28:05 IST" finished-at="2020-11-24T18:28:23 IST">
    <groups>
    </groups>
    <test name="Surefire test" duration-ms="18095" started-at="2020-11-24T18:28:05 IST" finished-at="2020-11-24T18:28:23 IST">
      <class name="Tests.GoogleSearchTests">
        <test-method status="PASS" signature="driverSetup()[pri:0, instance:Tests.GoogleSearchTests@cb644e]" name="driverSetup" is-config="true" duration-ms="8912" started-at="2020-11-24T18:28:05 IST" finished-at="2020-11-24T18:28:14 IST">
          <reporter-output>
          </reporter-output>
        </test-method> <!-- driverSetup -->
        <test-method status="PASS" signature="performGoogleSearch()[pri:0, instance:Tests.GoogleSearchTests@cb644e]" name="performGoogleSearch" duration-ms="9111" started-at="2020-11-24T18:28:14 IST" finished-at="2020-11-24T18:28:23 IST">
          <reporter-output>
          </reporter-output>
        </test-method> <!-- performGoogleSearch -->
        <test-method status="PASS" signature="quitDriver()[pri:0, instance:Tests.GoogleSearchTests@cb644e]" name="quitDriver" is-config="true" duration-ms="0" started-at="2020-11-24T18:28:23 IST" finished-at="2020-11-24T18:28:23 IST">
          <reporter-output>
          </reporter-output>
        </test-method> <!-- quitDriver -->
      </class> <!-- Tests.GoogleSearchTests -->
    </test> <!-- Surefire test -->
  </suite> <!-- Surefire suite -->
</testng-results>
